{
    "sense_hat": {
        "sleep_time": 30
    },
    "google_drive": {
        "enable": 1,
        "folder_id": "",
        "sleep_time": 3600
    },
    "adafruit_io": {
        "enable": 1,
        "key": "",
        "feeds": {
            "number": 4,
            "names": ["", "", "", ""]
        }
    }
}